…
``` r
st_intersection(buffered_polys, bins)
```

    ## although coordinates are longitude/latitude, st_intersection assumes that they are planar

    ## Warning: attribute variables are assumed to be spatially constant throughout all
    ## geometries

    ## Simple feature collection with 44 features and 5 fields
    ## geometry type:  POINT
    ## dimension:      XY
    ## bbox:           xmin: 6.138054 ymin: 46.19299 xmax: 6.142033 ymax: 46.19611
    ## geographic CRS: WGS 84
    ## # A tibble: 44 x 6
    ##    location_name SERVICE MODELE SUPPORT ANGLE            geometry
    ##  * <chr>         <chr>   <chr>  <chr>   <dbl>         <POINT [°]>
    ##  1 unimail       VVP     110l   <NA>        0  (6.14074 46.19445)
    ##  2 unimail       VVP     110l   <NA>        0 (6.141104 46.19465)
    ##  3 unimail       VVP     110l   <NA>        0 (6.141199 46.19474)
    ##  4 unimail       VVP     35l    <NA>        0 (6.141777 46.19449)
    ##  5 unimail       VVP     200l   <NA>        0 (6.139093 46.19573)
    ##  6 unimail       VVP     200l   <NA>        0  (6.138054 46.1953)
    ##  7 unimail       VVP     200l   <NA>        0 (6.139118 46.19532)
    ##  8 unimail       VVP     200l   <NA>        0  (6.138712 46.1956)
    ##  9 unimail       VVP     200l   <NA>        0 (6.138654 46.19531)
    ## 10 unimail       VVP     200l   <NA>        0 (6.138808 46.19586)
    ## # … with 34 more rows
…
codes <- read_csv("data/canton_codes.csv")
```

    ## 
    ## ── Column specification ────────────────────────────────────────────────────────
    ## cols(
    ##   code = col_character(),
    ##   code_num = col_double()
    ## )

``` r
codes
```

    ## # A tibble: 26 x 2
    ##    code  code_num
    ##    <chr>    <dbl>
    ##  1 ZH           1
    ##  2 BE           2
    ##  3 LU           3
    ##  4 UR           4
    ##  5 SZ           5
    ##  6 OW           6
    ##  7 NW           7
    ##  8 GL           8
    ##  9 ZG           9
    ## 10 FR          10
    ## # … with 16 more rows
…
